2019-01-09 23:00:44	Update #8: Completed!
2019-01-09 23:00:44	Update #9: Initializing update
2019-01-09 23:00:48	Update #9: Added: Pages > Recent
2019-01-09 23:00:48	Update #9: Completed!
2019-01-09 23:00:54	Update #10: Initializing update
2019-01-09 23:00:58	Update #10: Installed ProcessLogger and added: Setup > Logs
2019-01-09 23:00:58	Update #10: Installed InputfieldIcon
2019-01-09 23:00:58	Update #10: Completed!
2019-01-09 23:00:59	Update #11: Initializing update
2019-01-09 23:00:59	Update #11: Completed!
2019-01-09 23:01:13	Update #12: Initializing update
2019-01-09 23:01:13	Update #12: Added 'published' column to pages table
2019-01-09 23:01:13	Update #12: Populated values to 'published' for 48 pages
2019-01-09 23:01:13	Update #12: Completed!
2019-01-09 23:01:13	Update #13: Initializing update
2019-01-09 23:01:15	Update #13: Completed!
2019-01-09 23:01:16	Update #14: Initializing update
2019-01-09 23:01:16	Update #14: Completed!
2019-01-09 23:01:16	Update #15: Initializing update
2019-01-09 23:01:18	Update #15: Completed!
2019-01-09 23:01:18	Update #16: Initializing update
2019-01-09 23:01:19	Update #16: Completed!
